%YAML 1.1
%TAG !u! tag:unity3d.com,2011:
--- !u!1 &1973797737910531246
GameObject:
  m_ObjectHideFlags: 0
  m_CorrespondingSourceObject: {fileID: 0}
  m_PrefabInstance: {fileID: 0}
  m_PrefabAsset: {fileID: 0}
  serializedVersion: 6
  m_Component:
  - component: {fileID: 8073780056379140067}
  m_Layer: 0
  m_Name: RockAtmo
  m_TagString: Untagged
  m_Icon: {fileID: 0}
  m_NavMeshLayer: 0
  m_StaticEditorFlags: 0
  m_IsActive: 1
--- !u!4 &8073780056379140067
Transform:
  m_ObjectHideFlags: 0
  m_CorrespondingSourceObject: {fileID: 0}
  m_PrefabInstance: {fileID: 0}
  m_PrefabAsset: {fileID: 0}
  m_GameObject: {fileID: 1973797737910531246}
  m_LocalRotation: {x: -0.7071068, y: -0, z: -0, w: 0.7071067}
  m_LocalPosition: {x: -70.46508, y: 170.70726, z: 65.05441}
  m_LocalScale: {x: 1, y: 1, z: 1}
  m_Children:
  - {fileID: 925732095104393281}
  - {fileID: 8106627154015700534}
  m_Father: {fileID: 0}
  m_RootOrder: 0
  m_LocalEulerAnglesHint: {x: 0, y: 0, z: 0}
--- !u!1001 &2455026348699641320
PrefabInstance:
  m_ObjectHideFlags: 0
  serializedVersion: 2
  m_Modification:
    m_TransformParent: {fileID: 8073780056379140067}
    m_Modifications:
    - target: {fileID: 2702456334840176403, guid: 06c683a48c0785b41a85bd05a6f68051, type: 3}
      propertyPath: m_Name
      value: RockModell
      objectReference: {fileID: 0}
    - target: {fileID: 3371750381114049961, guid: 06c683a48c0785b41a85bd05a6f68051, type: 3}
      propertyPath: m_LocalPosition.x
      value: 0
      objectReference: {fileID: 0}
    - target: {fileID: 3371750381114049961, guid: 06c683a48c0785b41a85bd05a6f68051, type: 3}
      propertyPath: m_LocalPosition.y
      value: 0
      objectReference: {fileID: 0}
    - target: {fileID: 3371750381114049961, guid: 06c683a48c0785b41a85bd05a6f68051, type: 3}
      propertyPath: m_LocalPosition.z
      value: 0
      objectReference: {fileID: 0}
    - target: {fileID: 3371750381114049961, guid: 06c683a48c0785b41a85bd05a6f68051, type: 3}
      propertyPath: m_LocalRotation.x
      value: -0
      objectReference: {fileID: 0}
    - target: {fileID: 3371750381114049961, guid: 06c683a48c0785b41a85bd05a6f68051, type: 3}
      propertyPath: m_LocalRotation.y
      value: -0
      objectReference: {fileID: 0}
    - target: {fileID: 3371750381114049961, guid: 06c683a48c0785b41a85bd05a6f68051, type: 3}
      propertyPath: m_LocalRotation.z
      value: -0
      objectReference: {fileID: 0}
    - target: {fileID: 3371750381114049961, guid: 06c683a48c0785b41a85bd05a6f68051, type: 3}
      propertyPath: m_LocalRotation.w
      value: 1
      objectReference: {fileID: 0}
    - target: {fileID: 3371750381114049961, guid: 06c683a48c0785b41a85bd05a6f68051, type: 3}
      propertyPath: m_RootOrder
      value: 0
      objectReference: {fileID: 0}
    - target: {fileID: 3371750381114049961, guid: 06c683a48c0785b41a85bd05a6f68051, type: 3}
      propertyPath: m_LocalEulerAnglesHint.x
      value: 0
      objectReference: {fileID: 0}
    - target: {fileID: 3371750381114049961, guid: 06c683a48c0785b41a85bd05a6f68051, type: 3}
      propertyPath: m_LocalEulerAnglesHint.y
      value: 0
      objectReference: {fileID: 0}
    - target: {fileID: 3371750381114049961, guid: 06c683a48c0785b41a85bd05a6f68051, type: 3}
      propertyPath: m_LocalEulerAnglesHint.z
      value: 0
      objectReference: {fileID: 0}
    - target: {fileID: 4504146942930501318, guid: 06c683a48c0785b41a85bd05a6f68051, type: 3}
      propertyPath: m_Materials.Array.data[0]
      value: 
      objectReference: {fileID: 0}
    m_RemovedComponents: []
  m_SourcePrefab: {fileID: 100100000, guid: 06c683a48c0785b41a85bd05a6f68051, type: 3}
--- !u!4 &925732095104393281 stripped
Transform:
  m_CorrespondingSourceObject: {fileID: 3371750381114049961, guid: 06c683a48c0785b41a85bd05a6f68051, type: 3}
  m_PrefabInstance: {fileID: 2455026348699641320}
  m_PrefabAsset: {fileID: 0}
--- !u!1001 &3529174979793466582
PrefabInstance:
  m_ObjectHideFlags: 0
  serializedVersion: 2
  m_Modification:
    m_TransformParent: {fileID: 8073780056379140067}
    m_Modifications:
    - target: {fileID: 4646205736767812320, guid: 5d6405a9ab794a7459f4e1cb4b7ca9ef, type: 3}
      propertyPath: m_LocalPosition.x
      value: 34.05
      objectReference: {fileID: 0}
    - target: {fileID: 4646205736767812320, guid: 5d6405a9ab794a7459f4e1cb4b7ca9ef, type: 3}
      propertyPath: m_LocalPosition.y
      value: -31.9
      objectReference: {fileID: 0}
    - target: {fileID: 4646205736767812320, guid: 5d6405a9ab794a7459f4e1cb4b7ca9ef, type: 3}
      propertyPath: m_LocalPosition.z
      value: 32.41
      objectReference: {fileID: 0}
    - target: {fileID: 4646205736767812320, guid: 5d6405a9ab794a7459f4e1cb4b7ca9ef, type: 3}
      propertyPath: m_LocalRotation.x
      value: -0
      objectReference: {fileID: 0}
    - target: {fileID: 4646205736767812320, guid: 5d6405a9ab794a7459f4e1cb4b7ca9ef, type: 3}
      propertyPath: m_LocalRotation.y
      value: -0
      objectReference: {fileID: 0}
    - target: {fileID: 4646205736767812320, guid: 5d6405a9ab794a7459f4e1cb4b7ca9ef, type: 3}
      propertyPath: m_LocalRotation.z
      value: -0
      objectReference: {fileID: 0}
    - target: {fileID: 4646205736767812320, guid: 5d6405a9ab794a7459f4e1cb4b7ca9ef, type: 3}
      propertyPath: m_LocalRotation.w
      value: 1
      objectReference: {fileID: 0}
    - target: {fileID: 4646205736767812320, guid: 5d6405a9ab794a7459f4e1cb4b7ca9ef, type: 3}
      propertyPath: m_RootOrder
      value: 1
      objectReference: {fileID: 0}
    - target: {fileID: 4646205736767812320, guid: 5d6405a9ab794a7459f4e1cb4b7ca9ef, type: 3}
      propertyPath: m_LocalEulerAnglesHint.x
      value: 0
      objectReference: {fileID: 0}
    - target: {fileID: 4646205736767812320, guid: 5d6405a9ab794a7459f4e1cb4b7ca9ef, type: 3}
      propertyPath: m_LocalEulerAnglesHint.y
      value: 0
      objectReference: {fileID: 0}
    - target: {fileID: 4646205736767812320, guid: 5d6405a9ab794a7459f4e1cb4b7ca9ef, type: 3}
      propertyPath: m_LocalEulerAnglesHint.z
      value: 0
      objectReference: {fileID: 0}
    - target: {fileID: 4646205736767812323, guid: 5d6405a9ab794a7459f4e1cb4b7ca9ef, type: 3}
      propertyPath: m_Name
      value: GameObject (4)
      objectReference: {fileID: 0}
    - target: {fileID: 4646205736767812323, guid: 5d6405a9ab794a7459f4e1cb4b7ca9ef, type: 3}
      propertyPath: m_IsActive
      value: 1
      objectReference: {fileID: 0}
    - target: {fileID: 4646205736979203985, guid: 5d6405a9ab794a7459f4e1cb4b7ca9ef, type: 3}
      propertyPath: SubModule.enabled
      value: 0
      objectReference: {fileID: 0}
    - target: {fileID: 4646205736979203985, guid: 5d6405a9ab794a7459f4e1cb4b7ca9ef, type: 3}
      propertyPath: ShapeModule.m_Mesh
      value: 
      objectReference: {fileID: 10206, guid: 0000000000000000e000000000000000, type: 0}
    - target: {fileID: 4646205736979203985, guid: 5d6405a9ab794a7459f4e1cb4b7ca9ef, type: 3}
      propertyPath: ShapeModule.type
      value: 5
      objectReference: {fileID: 0}
    - target: {fileID: 4646205736979203985, guid: 5d6405a9ab794a7459f4e1cb4b7ca9ef, type: 3}
      propertyPath: ShapeModule.m_Scale.z
      value: 34.2
      objectReference: {fileID: 0}
    - target: {fileID: 4646205736979203985, guid: 5d6405a9ab794a7459f4e1cb4b7ca9ef, type: 3}
      propertyPath: ShapeModule.m_Scale.x
      value: 20.31
      objectReference: {fileID: 0}
    - target: {fileID: 4646205736979203985, guid: 5d6405a9ab794a7459f4e1cb4b7ca9ef, type: 3}
      propertyPath: ShapeModule.m_Scale.y
      value: 19.9
      objectReference: {fileID: 0}
    - target: {fileID: 4646205736979203985, guid: 5d6405a9ab794a7459f4e1cb4b7ca9ef, type: 3}
      propertyPath: ShapeModule.randomPositionAmount
      value: 0.59
      objectReference: {fileID: 0}
    - target: {fileID: 4646205736979203985, guid: 5d6405a9ab794a7459f4e1cb4b7ca9ef, type: 3}
      propertyPath: ShapeModule.randomDirectionAmount
      value: 1
      objectReference: {fileID: 0}
    - target: {fileID: 4646205736979203985, guid: 5d6405a9ab794a7459f4e1cb4b7ca9ef, type: 3}
      propertyPath: ShapeModule.sphericalDirectionAmount
      value: 1
      objectReference: {fileID: 0}
    - target: {fileID: 4646205736979203985, guid: 5d6405a9ab794a7459f4e1cb4b7ca9ef, type: 3}
      propertyPath: InitialModule.startLifetime.scalar
      value: 4.74
      objectReference: {fileID: 0}
    - target: {fileID: 4646205736979203985, guid: 5d6405a9ab794a7459f4e1cb4b7ca9ef, type: 3}
      propertyPath: ShapeModule.radiusThickness
      value: 1
      objectReference: {fileID: 0}
    - target: {fileID: 4646205736979203987, guid: 5d6405a9ab794a7459f4e1cb4b7ca9ef, type: 3}
      propertyPath: m_LocalPosition.z
      value: -25.85
      objectReference: {fileID: 0}
    - target: {fileID: 4646205736979203987, guid: 5d6405a9ab794a7459f4e1cb4b7ca9ef, type: 3}
      propertyPath: m_LocalPosition.x
      value: -28.15
      objectReference: {fileID: 0}
    - target: {fileID: 4646205737493908698, guid: 5d6405a9ab794a7459f4e1cb4b7ca9ef, type: 3}
      propertyPath: m_Range
      value: 60.6
      objectReference: {fileID: 0}
    - target: {fileID: 4646205737493908701, guid: 5d6405a9ab794a7459f4e1cb4b7ca9ef, type: 3}
      propertyPath: m_LocalPosition.x
      value: -33.3
      objectReference: {fileID: 0}
    m_RemovedComponents: []
  m_SourcePrefab: {fileID: 100100000, guid: 5d6405a9ab794a7459f4e1cb4b7ca9ef, type: 3}
--- !u!4 &8106627154015700534 stripped
Transform:
  m_CorrespondingSourceObject: {fileID: 4646205736767812320, guid: 5d6405a9ab794a7459f4e1cb4b7ca9ef, type: 3}
  m_PrefabInstance: {fileID: 3529174979793466582}
  m_PrefabAsset: {fileID: 0}
